{
  "realm": "cowboy-shooter",
  "auth-server-url": "http://keycloak-shooter.openshift.physter.lan/auth",
  "ssl-required": "external",
  "resource": "gui-shooter",
  "public-client": true,
  "confidential-port": 0
}
